{'user_mentions': [], 'time_of_day': datetime.datetime(2017, 8, 13, 8, 41, 45), 'user_start_date': datetime.datetime(2017, 6, 23, 0, 3, 30), 'followers': 528, 'name': u'armysugakookies', 'favorites': 6, 'text': u'i have tried suicide more than once, i have cried so many tears, i have gone days w/o eating, didnt embrace myself, havent found me.', 'tot_user_posts': 5421, 'friends': 714, 'retweets': 0}
{'user_mentions': [], 'time_of_day': datetime.datetime(2017, 8, 10, 4, 46, 21), 'user_start_date': datetime.datetime(2013, 4, 12, 13, 46, 23), 'followers': 169, 'name': u'queenbsupreme', 'favorites': 0, 'text': u'i attempted suicide more than once and was self medicating for months and months before i ended up checking myself into the psych unit', 'tot_user_posts': 11137, 'friends': 696, 'retweets': 0}
{'user_mentions': [], 'time_of_day': datetime.datetime(2017, 8, 17, 16, 43, 41), 'user_start_date': datetime.datetime(2013, 3, 12, 0, 48, 40), 'followers': 890, 'name': u'Mo_Clarke', 'favorites': 1, 'text': u'Still depressed still misunderstood still poppin pills poppin seals smoking backwoods', 'tot_user_posts': 87507, 'friends': 821, 'retweets': 2}
{'user_mentions': [], 'time_of_day': datetime.datetime(2017, 8, 16, 10, 23, 32), 'user_start_date': datetime.datetime(2013, 1, 9, 6, 44, 15), 'followers': 332, 'name': u'isthisitt', 'favorites': 1, 'text': u"when you're depressed and wanna sleep but your anxiety makes that impossible so you pop 10 sleeping pills a day \U0001f44c\U0001f3fd", 'tot_user_posts': 10441, 'friends': 343, 'retweets': 0}
{'user_mentions': [], 'time_of_day': datetime.datetime(2017, 8, 14, 15, 13, 43), 'user_start_date': datetime.datetime(2013, 8, 30, 20, 30, 13), 'followers': 306, 'name': u'smokey_bear916', 'favorites': 3, 'text': u'Still depressed, still misunderstood, Still popping pills, popping seals, smoking Backwoods.', 'tot_user_posts': 5315, 'friends': 153, 'retweets': 1}
{'user_mentions': [], 'time_of_day': datetime.datetime(2017, 8, 14, 13, 1, 54), 'user_start_date': datetime.datetime(2015, 9, 12, 20, 22, 52), 'followers': 642, 'name': u'ourspolaroids', 'favorites': 0, 'text': u"pills?!?!? (a lot) sometimes I take some pills when I'm depressed https://t.co/LrNjdvd8wM", 'tot_user_posts': 1371, 'friends': 1048, 'retweets': 0}
{'user_mentions': [{u'id': 362584385, u'indices': [0, 14], u'id_str': u'362584385', u'screen_name': u'BrendonGumede', u'name': u'Brendon Gumede'}], 'time_of_day': datetime.datetime(2017, 8, 14, 10, 31, 50), 'user_start_date': datetime.datetime(2011, 3, 13, 13, 57, 28), 'followers': 2831, 'name': u'LaniBlahnik', 'favorites': 0, 'text': u"@BrendonGumede I'm clearly depressed mtaka dabs. I need happy pills.", 'tot_user_posts': 145910, 'friends': 647, 'retweets': 0}
{'user_mentions': [], 'time_of_day': datetime.datetime(2017, 8, 14, 3, 45, 7), 'user_start_date': datetime.datetime(2015, 2, 28, 2, 30, 13), 'followers': 502, 'name': u'Domo_Divine', 'favorites': 0, 'text': u'Im not taking my pills anymore they got me feeling sad af and more depressed then I was fuck that', 'tot_user_posts': 3795, 'friends': 649, 'retweets': 0}
{'user_mentions': [], 'time_of_day': datetime.datetime(2017, 8, 13, 16, 53, 28), 'user_start_date': datetime.datetime(2017, 8, 10, 16, 3, 16), 'followers': 3, 'name': u'_trying_to_life', 'favorites': 1, 'text': u'#depressed #worthless #love #hate #hatemyself  #dead #pills #Suicide #world #live #dont #want #to #live #smoke #suicideroom #hopeless #miss https://t.co/TKMYyjEXXX', 'tot_user_posts': 6, 'friends': 15, 'retweets': 0}
{'user_mentions': [], 'time_of_day': datetime.datetime(2017, 8, 12, 21, 19, 47), 'user_start_date': datetime.datetime(2009, 11, 23, 22, 17, 21), 'followers': 14, 'name': u'kmary2008', 'favorites': 0, 'text': u'Not a good thing when ur so depressed n want to end it all, when you have a whole bottle full of pills.. When does the sadness end!?!?!?', 'tot_user_posts': 322, 'friends': 44, 'retweets': 0}
{'user_mentions': [], 'time_of_day': datetime.datetime(2017, 8, 12, 10, 7, 41), 'user_start_date': datetime.datetime(2017, 8, 10, 16, 3, 16), 'followers': 3, 'name': u'_trying_to_life', 'favorites': 0, 'text': u'#depressed #worthless #hatemyself #die #dead #me  #pills #Suicide #pill #world #dont #want #to #live #smoke #suicideroom #hopeless #miss https://t.co/O3rd1OWrH1', 'tot_user_posts': 6, 'friends': 15, 'retweets': 0}
{'user_mentions': [], 'time_of_day': datetime.datetime(2017, 8, 11, 3, 10, 41), 'user_start_date': datetime.datetime(2016, 4, 30, 23, 36, 53), 'followers': 106, 'name': u'Lucky07251959', 'favorites': 0, 'text': u"I'm so depressed and I feel ashamed popping pills everyday so I don't feel the pain but I don't say shit i don't ever say shit", 'tot_user_posts': 4351, 'friends': 127, 'retweets': 0}
{'user_mentions': [], 'time_of_day': datetime.datetime(2017, 8, 10, 21, 5, 10), 'user_start_date': datetime.datetime(2016, 3, 30, 18, 14, 28), 'followers': 322, 'name': u'pink_moemoe_28', 'favorites': 1, 'text': u"I hate taking pills more than being depressed 24/7 and trying to die bc it just hits me out of the blue and it's strong af like no thanks", 'tot_user_posts': 8762, 'friends': 329, 'retweets': 0}
{'user_mentions': [], 'time_of_day': datetime.datetime(2017, 8, 10, 20, 45, 8), 'user_start_date': datetime.datetime(2017, 2, 27, 23, 28, 46), 'followers': 71, 'name': u'ChanceHalo', 'favorites': 1, 'text': u"Stupid fucking pills. I don't take them ONE DAY and my emotions are completely fucked, I'm depressed, this shits retarded I FUCKING HATE IT", 'tot_user_posts': 882, 'friends': 197, 'retweets': 0}
{'user_mentions': [], 'time_of_day': datetime.datetime(2017, 8, 10, 19, 38, 21), 'user_start_date': datetime.datetime(2014, 1, 28, 23, 10, 24), 'followers': 327, 'name': u'Pinebunnny', 'favorites': 0, 'text': u'I would rather be depressed af than fill myself up with pills to make everything seem better than it is', 'tot_user_posts': 70528, 'friends': 512, 'retweets': 0}
{'user_mentions': [], 'time_of_day': datetime.datetime(2017, 8, 10, 14, 50, 59), 'user_start_date': datetime.datetime(2011, 4, 16, 18, 19, 54), 'followers': 564, 'name': u'BChang308', 'favorites': 0, 'text': u"No matter how much I try not get depressed, it always happens!!! The pills don't even wrk anymore", 'tot_user_posts': 5415, 'friends': 694, 'retweets': 0}
{'user_mentions': [], 'time_of_day': datetime.datetime(2017, 8, 10, 9, 46, 28), 'user_start_date': datetime.datetime(2016, 5, 17, 20, 3, 11), 'followers': 71, 'name': u'kane_rush', 'favorites': 0, 'text': u"When ur mum asks if you need to see someone or go to a doctor for fukin happy pills cus you're a depressed piece of shit hahahahahahahahaha", 'tot_user_posts': 634, 'friends': 142, 'retweets': 0}
{'user_mentions': [], 'time_of_day': datetime.datetime(2017, 8, 10, 3, 2, 39), 'user_start_date': datetime.datetime(2010, 9, 15, 8, 6, 54), 'followers': 2676, 'name': u'Freakshowney', 'favorites': 7, 'text': u"i've been so depressed lately, i found these pills under my bed and i'm about to take them all. don't try to stop me. https://t.co/uaXc8h2kep", 'tot_user_posts': 245774, 'friends': 184, 'retweets': 0}
{'user_mentions': [], 'time_of_day': datetime.datetime(2017, 8, 10, 2, 35, 45), 'user_start_date': datetime.datetime(2011, 8, 25, 22, 28, 58), 'followers': 86, 'name': u'merlissasus', 'favorites': 2, 'text': u"Six pills a day! Two pills! Three times a day!! With food!!! Um excuse me I'm taking these bc I'm depressed this is Too Much to ask", 'tot_user_posts': 4302, 'friends': 74, 'retweets': 0}
{'user_mentions': [], 'time_of_day': datetime.datetime(2017, 8, 9, 16, 53, 45), 'user_start_date': datetime.datetime(2016, 5, 31, 19, 31, 19), 'followers': 27, 'name': u'purplelishcage', 'favorites': 0, 'text': u"Blood, knives and pills sounded good at 2am when the demons wouldn't stop calling your name #ana #depressed #broken", 'tot_user_posts': 121, 'friends': 43, 'retweets': 0}
{'user_mentions': [], 'time_of_day': datetime.datetime(2017, 8, 9, 15, 4, 34), 'user_start_date': datetime.datetime(2014, 3, 16, 13, 39, 24), 'followers': 630, 'name': u'shaisolita', 'favorites': 2, 'text': u"Idk if it's bc of my hormonal pills or what but I just feel a little gloomy and depressed", 'tot_user_posts': 14878, 'friends': 397, 'retweets': 0}
{'user_mentions': [], 'time_of_day': datetime.datetime(2017, 8, 9, 12, 39, 26), 'user_start_date': datetime.datetime(2013, 5, 16, 10, 39, 6), 'followers': 4263, 'name': u'hellowonho_', 'favorites': 9, 'text': u'no sleep, no appetite, running on redbull &amp; sleeping pills. i feel like a depressed robot', 'tot_user_posts': 26896, 'friends': 189, 'retweets': 2}
{'user_mentions': [], 'time_of_day': datetime.datetime(2017, 8, 9, 10, 53, 7), 'user_start_date': datetime.datetime(2013, 10, 22, 12, 30, 26), 'followers': 2676, 'name': u'afemal3pr', 'favorites': 2, 'text': u"When I'm depressed I just take sleeping pills and try and sleep that shit away", 'tot_user_posts': 126289, 'friends': 594, 'retweets': 0}
{'user_mentions': [{u'id': 14295156, u'indices': [0, 11], u'id_str': u'14295156', u'screen_name': u'TheDoctors', u'name': u'The Doctors'}], 'time_of_day': datetime.datetime(2017, 8, 9, 8, 0, 21), 'user_start_date': datetime.datetime(2011, 3, 28, 3, 8, 23), 'followers': 13, 'name': u'Tammea70', 'favorites': 0, 'text': u"@TheDoctors I feel completely lost. I am so depressed. I can't take pain pills. I just live with my pain every day. I just want to feel normal. \U0001f629", 'tot_user_posts': 86, 'friends': 102, 'retweets': 0}
{'user_mentions': [], 'time_of_day': datetime.datetime(2017, 8, 9, 1, 29, 37), 'user_start_date': datetime.datetime(2013, 10, 2, 3, 45, 42), 'followers': 1014, 'name': u'PrincessxMisery', 'favorites': 1, 'text': u'I gotta stop being so depressed, I do take my pills everyday so I wonder what it is', 'tot_user_posts': 23588, 'friends': 89, 'retweets': 0}
{'user_mentions': [], 'time_of_day': datetime.datetime(2017, 8, 17, 16, 35, 21), 'user_start_date': datetime.datetime(2016, 9, 1, 15, 19, 22), 'followers': 159, 'name': u'BaeQin', 'favorites': 0, 'text': u"Im fcking hurt! I got depressed but who's care?? You never care about me!", 'tot_user_posts': 23618, 'friends': 290, 'retweets': 0}
{'user_mentions': [], 'time_of_day': datetime.datetime(2017, 8, 17, 16, 30, 19), 'user_start_date': datetime.datetime(2010, 8, 26, 14, 34, 29), 'followers': 9472, 'name': u'NiallHftScottH', 'favorites': 1, 'text': u"I don't get angry I get... really sad and depressed please don't hurt me I'm fragile", 'tot_user_posts': 29421, 'friends': 9112, 'retweets': 0}
{'user_mentions': [], 'time_of_day': datetime.datetime(2017, 8, 17, 8, 27, 14), 'user_start_date': datetime.datetime(2017, 4, 18, 3, 9, 30), 'followers': 149, 'name': u'lacey_3044', 'favorites': 2, 'text': u'i feel hurt, betrayed, depressed and lonely. and the person that helps me the most, is obviously asleep. \U0001f615', 'tot_user_posts': 575, 'friends': 207, 'retweets': 0}
{'user_mentions': [], 'time_of_day': datetime.datetime(2017, 8, 17, 1, 33, 5), 'user_start_date': datetime.datetime(2015, 1, 1, 3, 26, 9), 'followers': 68, 'name': u'biersack145', 'favorites': 0, 'text': u'He deserves better then me\U0001f62d I feel like I always hurt him #depressed', 'tot_user_posts': 144, 'friends': 398, 'retweets': 0}
{'user_mentions': [], 'time_of_day': datetime.datetime(2017, 8, 16, 19, 12), 'user_start_date': datetime.datetime(2016, 9, 24, 13, 19, 14), 'followers': 42, 'name': u'Squidiiiii', 'favorites': 2, 'text': u'Fucking depressed and I fucking hurt... just let me die already \U0001f611', 'tot_user_posts': 292, 'friends': 151, 'retweets': 0}
{'user_mentions': [], 'time_of_day': datetime.datetime(2017, 8, 16, 13, 33, 37), 'user_start_date': datetime.datetime(2011, 1, 12, 21, 6, 55), 'followers': 2313, 'name': u'_lesbiTREN', 'favorites': 4, 'text': u'me talking to self: stop the savior syndrome. these problems are bigger than you. \n\nsomeone: tren, i am so hurt. and i am depressed. \n\nme: https://t.co/Gaxpfhg8Lo', 'tot_user_posts': 139472, 'friends': 861, 'retweets': 13}
{'user_mentions': [], 'time_of_day': datetime.datetime(2017, 8, 16, 3, 1, 3), 'user_start_date': datetime.datetime(2017, 5, 10, 13, 42, 33), 'followers': 79, 'name': u'LoudVoiceInside', 'favorites': 22, 'text': u'Friend: How are you?\n\nMe head: im alone, depressed, suicidal, dying, broken, hurt, fighting...\n\nMe: Im fine!! :)\n\nSometimes they dont know \U0001f633', 'tot_user_posts': 361, 'friends': 78, 'retweets': 10}
{'user_mentions': [], 'time_of_day': datetime.datetime(2017, 8, 16, 2, 59, 9), 'user_start_date': datetime.datetime(2016, 8, 11, 19, 46, 43), 'followers': 256, 'name': u'AngelaHerron_', 'favorites': 2, 'text': u'No one knows how sad and depressed I feel deep down..I miss her I really do,but she hurt me...', 'tot_user_posts': 2328, 'friends': 756, 'retweets': 0}
{'user_mentions': [], 'time_of_day': datetime.datetime(2017, 8, 15, 0, 32, 48), 'user_start_date': datetime.datetime(2013, 5, 5, 20, 24, 26), 'followers': 144, 'name': u'OM_MEH', 'favorites': 1, 'text': u"I was depressed af n didn't wanna talk 2 anyone ..even though I didn't hurt anyone who talked or asked about me in that fucked up time..", 'tot_user_posts': 8083, 'friends': 582, 'retweets': 0}
{'user_mentions': [], 'time_of_day': datetime.datetime(2017, 8, 14, 3, 3, 20), 'user_start_date': datetime.datetime(2012, 1, 26, 21, 53, 27), 'followers': 158, 'name': u'stepheeliza', 'favorites': 0, 'text': u"When you're depressed 'Leave me alone' doesn't mean I hate you. I mean I don't want to hurt you because I know what I can be like.", 'tot_user_posts': 21713, 'friends': 135, 'retweets': 0}
{'user_mentions': [], 'time_of_day': datetime.datetime(2017, 8, 12, 23, 16, 31), 'user_start_date': datetime.datetime(2014, 6, 20, 3, 9, 48), 'followers': 1598, 'name': u'7PurePrincesses', 'favorites': 2, 'text': u'I feel depressed and I want to either cut or hurt myself. I feel like no one cares about me', 'tot_user_posts': 14677, 'friends': 1260, 'retweets': 0}
{'user_mentions': [], 'time_of_day': datetime.datetime(2017, 8, 12, 15, 46, 55), 'user_start_date': datetime.datetime(2011, 2, 6, 20, 49, 11), 'followers': 373, 'name': u'Nae_TwoTimes', 'favorites': 0, 'text': u"I'm Bored And Depressed Don't Pay Me Any Attention I'm Just Hurt \U0001f614", 'tot_user_posts': 7591, 'friends': 554, 'retweets': 0}
{'user_mentions': [], 'time_of_day': datetime.datetime(2017, 8, 12, 13, 15, 19), 'user_start_date': datetime.datetime(2016, 12, 10, 6, 47, 59), 'followers': 223, 'name': u'foxydads', 'favorites': 6, 'text': u"Y does seeing other people happy make me so depressed y does feeling unnecessary hurt so much also it's raining and my body hurts", 'tot_user_posts': 2487, 'friends': 265, 'retweets': 0}
{'user_mentions': [], 'time_of_day': datetime.datetime(2017, 8, 12, 0, 57, 12), 'user_start_date': datetime.datetime(2016, 3, 8, 20, 59, 43), 'followers': 1657, 'name': u'savvysepticeye', 'favorites': 1, 'text': u"Can somebody please send me something nice. I've had a bad day and I feel so stressed and depressed and physically hurt", 'tot_user_posts': 24674, 'friends': 82, 'retweets': 0}
{'user_mentions': [], 'time_of_day': datetime.datetime(2017, 8, 10, 23, 11, 41), 'user_start_date': datetime.datetime(2016, 11, 10, 5, 7, 9), 'followers': 239, 'name': u'iamaustinporter', 'favorites': 0, 'text': u"Really Tired Of Being Depressed 24/7 Im Staying Away From Any And Everybody. Everybody Determined To Hurt Me And I Can't Deal\U0001f4af\U0001f5e3", 'tot_user_posts': 1589, 'friends': 150, 'retweets': 0}
{'user_mentions': [], 'time_of_day': datetime.datetime(2017, 8, 17, 16, 44, 2), 'user_start_date': datetime.datetime(2017, 4, 14, 3, 12, 27), 'followers': 0, 'name': u'PainHand', 'favorites': 0, 'text': u'Or I need a method to commit suicide. Cannot live in this excruciating, biotech-induced, anonymously-sourced sharp pain', 'tot_user_posts': 565, 'friends': 0, 'retweets': 0}
{'user_mentions': [], 'time_of_day': datetime.datetime(2017, 8, 17, 15, 26, 5), 'user_start_date': datetime.datetime(2017, 4, 27, 8, 17, 37), 'followers': 119, 'name': u'syam0hd', 'favorites': 5, 'text': u'the only words that can describe what I feel, "suicide is not being selfish, it\'s a desperation to end the unbearable pain" https://t.co/aO2HPwqWQK', 'tot_user_posts': 2938, 'friends': 94, 'retweets': 2}
{'user_mentions': [], 'time_of_day': datetime.datetime(2017, 8, 17, 14, 37, 19), 'user_start_date': datetime.datetime(2014, 4, 19, 14, 29, 25), 'followers': 60, 'name': u'idleDelaylah', 'favorites': 0, 'text': u"I think about suicide lately. I can't handle this pain alone", 'tot_user_posts': 2252, 'friends': 153, 'retweets': 0}
{'user_mentions': [{u'id': 423520109, u'indices': [0, 16], u'id_str': u'423520109', u'screen_name': u'LeopoldStotch11', u'name': u'Grant Murchie'}, {u'id': 1967912658, u'indices': [17, 26], u'id_str': u'1967912658', u'screen_name': u'Troy_J_E', u'name': u'Troy E'}, {u'id': 582726398, u'indices': [27, 41], u'id_str': u'582726398', u'screen_name': u'mikecannytalk', u'name': u'mike martin'}, {u'id': 815680, u'indices': [42, 54], u'id_str': u'815680', u'screen_name': u'godless_mom', u'name': u'\U0001f1e8\U0001f1e6 Godless Mom'}], 'time_of_day': datetime.datetime(2017, 8, 17, 14, 18, 53), 'user_start_date': datetime.datetime(2008, 1, 30, 13, 6, 7), 'followers': 377, 'name': u'mleith', 'favorites': 0, 'text': u'@LeopoldStotch11 @Troy_J_E @mikecannytalk @godless_mom Sadly, what I know is the pain they carry forever and that if they don\u2019t commit suicide they are troubled for life.', 'tot_user_posts': 9007, 'friends': 722, 'retweets': 0}
{'user_mentions': [], 'time_of_day': datetime.datetime(2017, 8, 17, 13, 58, 44), 'user_start_date': datetime.datetime(2015, 11, 20, 10, 57, 12), 'followers': 41, 'name': u'CalancaEto', 'favorites': 0, 'text': u'They say suicide is the fastest option to end depression.\nBecause in death you feel no pain\n#reality\n#depressed', 'tot_user_posts': 89, 'friends': 34, 'retweets': 0}
{'user_mentions': [], 'time_of_day': datetime.datetime(2017, 8, 16, 22, 59, 10), 'user_start_date': datetime.datetime(2016, 9, 5, 5, 38, 32), 'followers': 7, 'name': u'Sir__Tubsalot', 'favorites': 0, 'text': u'Suicide happens when the pain outweighs the hope you have', 'tot_user_posts': 48, 'friends': 48, 'retweets': 0}
{'user_mentions': [], 'time_of_day': datetime.datetime(2017, 8, 16, 20, 23, 4), 'user_start_date': datetime.datetime(2015, 2, 20, 23, 14), 'followers': 138, 'name': u'Lee_Shire', 'favorites': 4, 'text': u"I hate that it's called the suicide disease. How am I meant to be positive if I'm constantly reminded that I'll always be in pain https://t.co/kqPwPxAGce", 'tot_user_posts': 2851, 'friends': 687, 'retweets': 1}
{'user_mentions': [{u'id': 627670842, u'indices': [0, 12], u'id_str': u'627670842', u'screen_name': u'QueenHlatse', u'name': u'18th\U0001f388'}], 'time_of_day': datetime.datetime(2017, 8, 16, 19, 51, 2), 'user_start_date': datetime.datetime(2015, 11, 18, 13, 4, 33), 'followers': 1799, 'name': u'uNgcebo', 'favorites': 2, 'text': u"@QueenHlatse there are things you didn't mention, like how you plan your death and we commit suicide not to die but to end the pain we feel", 'tot_user_posts': 25777, 'friends': 394, 'retweets': 1}
{'user_mentions': [{u'id': 2522397417, u'indices': [0, 12], u'id_str': u'2522397417', u'screen_name': u'JakeJanusch', u'name': u'jake'}], 'time_of_day': datetime.datetime(2017, 8, 16, 19, 17, 32), 'user_start_date': datetime.datetime(2016, 7, 22, 20, 23, 42), 'followers': 320, 'name': u'Charlamb23', 'favorites': 0, 'text': u'@JakeJanusch will suicide end the pain?', 'tot_user_posts': 929, 'friends': 285, 'retweets': 0}
{'user_mentions': [], 'time_of_day': datetime.datetime(2017, 8, 16, 17, 17, 25), 'user_start_date': datetime.datetime(2015, 12, 18, 15, 4, 25), 'followers': 4163, 'name': u'sameeramaan1', 'favorites': 0, 'text': u'Just wait for more pain \n#sameeramaan #suicide', 'tot_user_posts': 12914, 'friends': 47, 'retweets': 0}
{'user_mentions': [], 'time_of_day': datetime.datetime(2017, 8, 16, 17, 7, 41), 'user_start_date': datetime.datetime(2017, 7, 23, 16, 36, 47), 'followers': 77, 'name': u'PichiFat', 'favorites': 1, 'text': u"I am sincerely thinking about suicide. I'm sncrly in pain. Depressed. Sincerely need help. Sincerely need to be happy 1 time in my life.", 'tot_user_posts': 350, 'friends': 76, 'retweets': 0}
{'user_mentions': [], 'time_of_day': datetime.datetime(2017, 8, 16, 16, 6, 42), 'user_start_date': datetime.datetime(2015, 9, 10, 4, 23, 7), 'followers': 33, 'name': u'Babyboidreams', 'favorites': 0, 'text': u'For 2 weeks I legit contemplated suicide. I know it can cause a ripple effect of pain on others but when going through excruciating pain,', 'tot_user_posts': 255, 'friends': 73, 'retweets': 0}
{'user_mentions': [], 'time_of_day': datetime.datetime(2017, 8, 16, 2, 43, 57), 'user_start_date': datetime.datetime(2017, 6, 3, 0, 28, 42), 'followers': 76, 'name': u'J6hkey', 'favorites': 0, 'text': u"i don't know how to deal with this pain cause i never thought you would commit suicide", 'tot_user_posts': 28, 'friends': 52, 'retweets': 0}
{'user_mentions': [], 'time_of_day': datetime.datetime(2017, 8, 16, 1, 39, 32), 'user_start_date': datetime.datetime(2017, 7, 2, 11, 8, 32), 'followers': 289, 'name': u'TattedMulan', 'favorites': 7, 'text': u'My blog talks about real life experiences. #pain , #heartache , #suicide , #depression , #suicide , #abuse link is in my bio \n#bloggerstribe', 'tot_user_posts': 420, 'friends': 270, 'retweets': 1}
{'user_mentions': [{u'id': 834509230640156672, u'indices': [0, 14], u'id_str': u'834509230640156672', u'screen_name': u'aleyna_tjarks', u'name': u'Aleyna Kaya'}], 'time_of_day': datetime.datetime(2017, 8, 15, 20, 38, 34), 'user_start_date': datetime.datetime(2014, 9, 12, 20, 27, 20), 'followers': 43, 'name': u'Karokaas', 'favorites': 1, 'text': u'@aleyna_tjarks Life is pain, Suicide is heaven', 'tot_user_posts': 9026, 'friends': 20, 'retweets': 2}
{'user_mentions': [], 'time_of_day': datetime.datetime(2017, 8, 15, 19, 30, 59), 'user_start_date': datetime.datetime(2011, 8, 24, 18, 45, 41), 'followers': 955, 'name': u'chazzamead', 'favorites': 0, 'text': u"suicide isn't selfish but keeping someone who's clearly in pain alive is.", 'tot_user_posts': 25945, 'friends': 398, 'retweets': 0}
{'user_mentions': [], 'time_of_day': datetime.datetime(2017, 8, 15, 19, 11, 15), 'user_start_date': datetime.datetime(2011, 11, 22, 6, 30, 52), 'followers': 281, 'name': u'poetryhumanity', 'favorites': 0, 'text': u'Suicide https://t.co/FfWp72qkvr #poetry #poem #poemlaw #POEMS #amwriting #poet #PoetPride #poetryclub #amwriting #kindle #love #hurt #pain', 'tot_user_posts': 3861, 'friends': 1245, 'retweets': 0}
{'user_mentions': [{u'id': 842419357460373504, u'indices': [125, 137], u'id_str': u'842419357460373504', u'screen_name': u'mynaked_org', u'name': u'MyNaked.org'}], 'time_of_day': datetime.datetime(2017, 8, 15, 19, 3, 24), 'user_start_date': datetime.datetime(2013, 12, 12, 13, 25, 44), 'followers': 1622, 'name': u'dejiirawo', 'favorites': 1, 'text': u"Many men r depressed trying 2 numb pain&amp;r committing suicide as we 've noticed recently b/c dey can't  talk. TuesdayTalk @mynaked_org", 'tot_user_posts': 4431, 'friends': 397, 'retweets': 5}
{'user_mentions': [], 'time_of_day': datetime.datetime(2017, 8, 15, 16, 6, 7), 'user_start_date': datetime.datetime(2016, 12, 16, 18, 5, 54), 'followers': 21, 'name': u'scvmbag2', 'favorites': 0, 'text': u"Sick and tired of the pain, everyday I feel drained ,suicide, there'd be no shame.", 'tot_user_posts': 473, 'friends': 53, 'retweets': 0}
{'user_mentions': [], 'time_of_day': datetime.datetime(2017, 8, 15, 15, 15, 4), 'user_start_date': datetime.datetime(2017, 2, 26, 21, 0, 35), 'followers': 36, 'name': u'tristemy', 'favorites': 0, 'text': u'I flirt with suicide, sometimes kill the pain', 'tot_user_posts': 4609, 'friends': 79, 'retweets': 0}
{'user_mentions': [], 'time_of_day': datetime.datetime(2017, 8, 15, 13, 33, 34), 'user_start_date': datetime.datetime(2016, 8, 7, 13, 31, 41), 'followers': 17, 'name': u'1_Zeref', 'favorites': 1, 'text': u'I like suicide but i dont like suffering or pain', 'tot_user_posts': 426, 'friends': 57, 'retweets': 0}
{'user_mentions': [], 'time_of_day': datetime.datetime(2017, 8, 15, 11, 33, 16), 'user_start_date': datetime.datetime(2017, 5, 3, 8, 1, 6), 'followers': 21, 'name': u'healer_elise', 'favorites': 0, 'text': u'why doesnt pain free suicide exist', 'tot_user_posts': 513, 'friends': 58, 'retweets': 0}
{'user_mentions': [], 'time_of_day': datetime.datetime(2017, 8, 15, 10, 39, 52), 'user_start_date': datetime.datetime(2010, 10, 24, 10, 53, 22), 'followers': 166, 'name': u'Staceyk1982', 'favorites': 16, 'text': u'Everyone should have the right to die with dignity. I can only imagine being in constant pain. Assisted suicide is humane.  #ThisMorning', 'tot_user_posts': 2845, 'friends': 405, 'retweets': 2}
{'user_mentions': [{u'id': 699971933773770753, u'indices': [0, 16], u'id_str': u'699971933773770753', u'screen_name': u'yourstrulyy1994', u'name': u"Trulyx'o ."}, {u'id': 760892318299795457, u'indices': [17, 31], u'id_str': u'760892318299795457', u'screen_name': u'jazlin_dallas', u'name': u'yt.jmendez'}, {u'id': 1621799930, u'indices': [32, 43], u'id_str': u'1621799930', u'screen_name': u'Antixvenom', u'name': u'\u7a2e'}, {u'id': 2777433355, u'indices': [44, 58], u'id_str': u'2777433355', u'screen_name': u'itsnaomilopez', u'name': u'Naomi'}, {u'id': 68907936, u'indices': [59, 68], u'id_str': u'68907936', u'screen_name': u'PHORAONE', u'name': u'PHORA'}], 'time_of_day': datetime.datetime(2017, 8, 15, 3, 52, 25), 'user_start_date': datetime.datetime(2017, 3, 5, 3, 56, 58), 'followers': 68, 'name': u'makaylavoland__', 'favorites': 0, 'text': u'@yourstrulyy1994 @jazlin_dallas @Antixvenom @itsnaomilopez @PHORAONE so im lyin saying that im ok but i been plottin on my suicide , you might know my story dawg but you will never know my pain &amp; she was all i', 'tot_user_posts': 231, 'friends': 62, 'retweets': 0}
{'user_mentions': [{u'id': 454513795, u'indices': [0, 14], u'id_str': u'454513795', u'screen_name': u'ChooseToBFree', u'name': u'AMERICA\u2606HAS\u2606SPOKEN'}, {u'id': 99086976, u'indices': [15, 25], u'id_str': u'99086976', u'screen_name': u'drtiner69', u'name': u'Trumpandguys'}, {u'id': 26900055, u'indices': [26, 37], u'id_str': u'26900055', u'screen_name': u'DrMartyFox', u'name': u'Dr. Marty Fox'}, {u'id': 870018330417131520, u'indices': [38, 53], u'id_str': u'870018330417131520', u'screen_name': u'GeneralFKelly1', u'name': u'Acting Surgeon Gener'}, {u'id': 425872825, u'indices': [54, 63], u'id_str': u'425872825', u'screen_name': u'RxSummit', u'name': u'Rx Drug Abuse Summit'}], 'time_of_day': datetime.datetime(2017, 8, 15, 3, 47, 55), 'user_start_date': datetime.datetime(2016, 11, 6, 23, 10, 6), 'followers': 2201, 'name': u'LelenaPeacock', 'favorites': 0, 'text': u'@ChooseToBFree @drtiner69 @DrMartyFox @GeneralFKelly1 @RxSummit There are already suicides due to uncontrolled pain. If I am denied meds, I will seriously consider suicide. :/', 'tot_user_posts': 18764, 'friends': 4103, 'retweets': 0}
{'user_mentions': [], 'time_of_day': datetime.datetime(2017, 8, 15, 2, 47, 9), 'user_start_date': datetime.datetime(2015, 8, 9, 21, 36, 40), 'followers': 43, 'name': u'DezFoxcoon', 'favorites': 0, 'text': u"This migraine is unbearable\n\nI can see where chronic pain drives people to suicide, I don't think I can take much more of this", 'tot_user_posts': 324, 'friends': 0, 'retweets': 0}
{'user_mentions': [], 'time_of_day': datetime.datetime(2017, 8, 14, 23, 39, 35), 'user_start_date': datetime.datetime(2017, 4, 14, 3, 12, 27), 'followers': 0, 'name': u'PainHand', 'favorites': 0, 'text': u'Finger in absolute, excruciating pain, triggering wishes of #suicide', 'tot_user_posts': 565, 'friends': 0, 'retweets': 0}
{'user_mentions': [], 'time_of_day': datetime.datetime(2017, 8, 14, 22, 3, 58), 'user_start_date': datetime.datetime(2016, 9, 21, 13, 16, 32), 'followers': 60, 'name': u'liv_txt', 'favorites': 0, 'text': u"hey i tried to suicide yesterday and now i can't get up because of pain", 'tot_user_posts': 7718, 'friends': 54, 'retweets': 0}
{'user_mentions': [], 'time_of_day': datetime.datetime(2017, 8, 14, 19, 30, 17), 'user_start_date': datetime.datetime(2010, 1, 28, 22, 44, 42), 'followers': 1782, 'name': u'ChangelssChange', 'favorites': 2, 'text': u'I clearly remember the pain but still lack words to adequately cover it. https://t.co/m4wOSDiUWn #depression #suicide #heretohelp #mentor', 'tot_user_posts': 7590, 'friends': 1866, 'retweets': 0}
{'user_mentions': [], 'time_of_day': datetime.datetime(2017, 8, 14, 18, 3, 38), 'user_start_date': datetime.datetime(2012, 5, 11, 7, 20, 55), 'followers': 831, 'name': u'fabianaa_xo', 'favorites': 23, 'text': u"suicide is tough in that moment you aren't thinking about your family or friends the pain is all you're thinking about", 'tot_user_posts': 10511, 'friends': 389, 'retweets': 0}
{'user_mentions': [], 'time_of_day': datetime.datetime(2017, 8, 14, 15, 44, 25), 'user_start_date': datetime.datetime(2015, 5, 9, 18, 29, 10), 'followers': 623, 'name': u'LILJADEYBOO', 'favorites': 0, 'text': u'suicide been contemplated.. pain killers in a cup', 'tot_user_posts': 7206, 'friends': 582, 'retweets': 0}
{'user_mentions': [{u'id': 339783657, u'indices': [0, 11], u'id_str': u'339783657', u'screen_name': u'fasanomike', u'name': u'Mike Fasano'}, {u'id': 14304462, u'indices': [12, 21], u'id_str': u'14304462', u'screen_name': u'TB_Times', u'name': u'Tampa Bay Times'}, {u'id': 545160763, u'indices': [22, 37], u'id_str': u'545160763', u'screen_name': u'romano_tbtimes', u'name': u'John Romano'}], 'time_of_day': datetime.datetime(2017, 8, 14, 15, 27, 39), 'user_start_date': datetime.datetime(2017, 7, 18, 22, 27, 13), 'followers': 16, 'name': u'HollyKai2', 'favorites': 1, 'text': u"@fasanomike @TB_Times @romano_tbtimes Pain medicine (opioids) USE doesn't mean ABUSE. 3 choices: Try to endure pain with NO help from doctors.Turn to the streets. Die by suicide.", 'tot_user_posts': 68, 'friends': 91, 'retweets': 0}
{'user_mentions': [], 'time_of_day': datetime.datetime(2017, 8, 14, 8, 5, 19), 'user_start_date': datetime.datetime(2016, 10, 17, 8, 6, 28), 'followers': 287, 'name': u'GentleWarrior5', 'favorites': 1, 'text': u'I know u have contacts ..can u arrange a death instead of a suicide? life is no longer liveable. the pain is too great. I want my mum, nana.', 'tot_user_posts': 8643, 'friends': 175, 'retweets': 0}
{'user_mentions': [], 'time_of_day': datetime.datetime(2017, 8, 14, 7, 57, 47), 'user_start_date': datetime.datetime(2013, 6, 27, 9, 28, 53), 'followers': 22, 'name': u'NoficRealms', 'favorites': 0, 'text': u"I actually want my life to end. I'd commit suicide if I weren't so afraid of pain. But if I had access to a gun, this tweet wouldn't exist.", 'tot_user_posts': 162, 'friends': 135, 'retweets': 1}
{'user_mentions': [], 'time_of_day': datetime.datetime(2017, 8, 14, 4, 22, 51), 'user_start_date': datetime.datetime(2012, 4, 22, 9, 24, 6), 'followers': 928, 'name': u'_NISMJ', 'favorites': 0, 'text': u'pain that may lead to suicide', 'tot_user_posts': 29425, 'friends': 546, 'retweets': 0}
{'user_mentions': [{u'id': 2773579914, u'indices': [0, 10], u'id_str': u'2773579914', u'screen_name': u'menhealuk', u'name': u'MEN HEAL'}, {u'id': 862029310470877185, u'indices': [11, 26], u'id_str': u'862029310470877185', u'screen_name': u'depressionnote', u'name': u'Depression Notes\u2122 \U0001f4c4'}], 'time_of_day': datetime.datetime(2017, 8, 14, 3, 48, 4), 'user_start_date': datetime.datetime(2017, 5, 19, 22, 39, 14), 'followers': 142, 'name': u'bipolaretaeus78', 'favorites': 2, 'text': u"@menhealuk @depressionnote Absolutely. Every attempt I've made I've not been of rational mind. Pain yes. Suicide not when brain is in control/ability to reason.", 'tot_user_posts': 591, 'friends': 213, 'retweets': 0}
{'user_mentions': [], 'time_of_day': datetime.datetime(2017, 8, 14, 2, 15, 51), 'user_start_date': datetime.datetime(2012, 3, 8, 21, 17, 32), 'followers': 1099, 'name': u'Nazzib18', 'favorites': 0, 'text': u'Suicide on my mind i been contemplating like every day ,like god damn i just wanna take the pain away!', 'tot_user_posts': 8706, 'friends': 1099, 'retweets': 0}
{'user_mentions': [{u'id': 19080617, u'indices': [0, 12], u'id_str': u'19080617', u'screen_name': u'GeorgiaTech', u'name': u'Georgia Tech'}, {u'id': 40284166, u'indices': [13, 23], u'id_str': u'40284166', u'screen_name': u'gvucenter', u'name': u'GVU Center'}, {u'id': 88836132, u'indices': [24, 30], u'id_str': u'88836132', u'screen_name': u'UMich', u'name': u'Univ. of Michigan'}, {u'id': 115763683, u'indices': [31, 46], u'id_str': u'115763683', u'screen_name': u'TheOfficialACM', u'name': u'Official ACM'}, {u'id': 797315311, u'indices': [47, 61], u'id_str': u'797315311', u'screen_name': u'hunterwasdead', u'name': u'Hunter Moore'}, {u'id': 2359926157, u'indices': [165, 169], u'id_str': u'2359926157', u'screen_name': u'CIA', u'name': u'CIA'}], 'time_of_day': datetime.datetime(2017, 8, 13, 16, 55, 35), 'user_start_date': datetime.datetime(2017, 6, 28, 10, 11, 46), 'followers': 23, 'name': u'CMasden7', 'favorites': 0, 'text': u'@GeorgiaTech @gvucenter @UMich @TheOfficialACM @hunterwasdead Nobody cares &amp; im in such pain dying horribly. I wish assisted suicide were legal. Crying so much. @cia why did you do this', 'tot_user_posts': 34331, 'friends': 25, 'retweets': 0}
{'user_mentions': [], 'time_of_day': datetime.datetime(2017, 8, 13, 9, 17, 9), 'user_start_date': datetime.datetime(2017, 5, 1, 20, 18, 46), 'followers': 65, 'name': u'I_AmNotAverage', 'favorites': 0, 'text': u"I wrote one of the world's greatest poem on suicide. Everyone thought it was great. They missed the whole point, I was in pain", 'tot_user_posts': 806, 'friends': 63, 'retweets': 0}
{'user_mentions': [{u'id': 128789996, u'indices': [0, 9], u'id_str': u'128789996', u'screen_name': u'waelagur', u'name': u'Wael Agur'}, {u'id': 4693997119, u'indices': [10, 18], u'id_str': u'4693997119', u'screen_name': u'ranzcog', u'name': u'RANZCOG - O&G'}], 'time_of_day': datetime.datetime(2017, 8, 13, 8, 1, 5), 'user_start_date': datetime.datetime(2012, 1, 27, 2, 20, 48), 'followers': 3076, 'name': u'redellis1', 'favorites': 1, 'text': u'@waelagur @ranzcog Gynacare Mesh caused me 2 have PUDENDAL NERVE DAMAGE! Pain is worse than childbirth 24x7! HORRIFIC!Many women commit suicide with this pain!', 'tot_user_posts': 54915, 'friends': 4423, 'retweets': 0}
{'user_mentions': [], 'time_of_day': datetime.datetime(2017, 8, 13, 4, 29, 3), 'user_start_date': datetime.datetime(2012, 7, 10, 6, 24, 10), 'followers': 546, 'name': u'muh_randa_', 'favorites': 0, 'text': u'masking pain is suicide of the mind.', 'tot_user_posts': 10221, 'friends': 532, 'retweets': 1}
{'user_mentions': [], 'time_of_day': datetime.datetime(2017, 8, 13, 3, 3, 40), 'user_start_date': datetime.datetime(2017, 5, 2, 4, 52, 43), 'followers': 81, 'name': u'SolarKirbeh', 'favorites': 0, 'text': u"i have such an intense fear of people hating me or making fun of me. It's bad that i think of suicide to ease the pain all the time", 'tot_user_posts': 2763, 'friends': 515, 'retweets': 0}
{'user_mentions': [], 'time_of_day': datetime.datetime(2017, 8, 13, 1, 25, 30), 'user_start_date': datetime.datetime(2015, 4, 22, 23, 34, 20), 'followers': 114, 'name': u'JoaosvfgBR', 'favorites': 0, 'text': u'Day is here fading, that\'s when I\'m insane. I flirt with suicide, sometimes kill the pain. I can always say, "It\'s gonna be better tomorrow"', 'tot_user_posts': 2433, 'friends': 163, 'retweets': 0}
{'user_mentions': [], 'time_of_day': datetime.datetime(2017, 8, 12, 7, 10, 56), 'user_start_date': datetime.datetime(2013, 8, 21, 2, 50, 27), 'followers': 162, 'name': u'londonxmaye', 'favorites': 0, 'text': u'the pain of losing someone to suicide never goes away damn', 'tot_user_posts': 2866, 'friends': 267, 'retweets': 0}
{'user_mentions': [], 'time_of_day': datetime.datetime(2017, 8, 12, 5, 3, 51), 'user_start_date': datetime.datetime(2012, 5, 18, 21, 35, 28), 'followers': 1322, 'name': u'Zombie_Moth', 'favorites': 1, 'text': u"Don't suicide with pills. You'll die with chronic stomach pain and puking. Gun or exit bag is best imo. [the more you know.mp3]", 'tot_user_posts': 61326, 'friends': 719, 'retweets': 0}
{'user_mentions': [{u'id': 842585120062103553, u'indices': [0, 13], u'id_str': u'842585120062103553', u'screen_name': u'denverguy844', u'name': u'Phillip'}, {u'id': 256344616, u'indices': [14, 27], u'id_str': u'256344616', u'screen_name': u'nubs_foreman', u'name': u'\U0001f338 Gnome Chomsky \U0001f338'}, {u'id': 1694040764, u'indices': [28, 38], u'id_str': u'1694040764', u'screen_name': u'xychelsea', u'name': u'Chelsea E. Manning'}], 'time_of_day': datetime.datetime(2017, 8, 12, 4, 56, 2), 'user_start_date': datetime.datetime(2008, 7, 12, 8, 23, 1), 'followers': 41, 'name': u'missnicky319', 'favorites': 0, 'text': u"@denverguy844 @nubs_foreman @xychelsea That's what happens to true heros pain is temporary even thoughts of suicide if u deal and survive guess what u become stronger", 'tot_user_posts': 9309, 'friends': 115, 'retweets': 0}
{'user_mentions': [], 'time_of_day': datetime.datetime(2017, 8, 11, 15, 29, 52), 'user_start_date': datetime.datetime(2009, 8, 1, 4, 43, 1), 'followers': 417, 'name': u'Melinton7', 'favorites': 0, 'text': u'"Don\u2019t minimize my pain and pretend it doesn\u2019t exist. I didn\u2019t ask for this illness. Nobody asks for any illness." https://t.co/0pHIiZc5it', 'tot_user_posts': 25625, 'friends': 382, 'retweets': 0}
{'user_mentions': [{u'id': 2895908245, u'indices': [0, 14], u'id_str': u'2895908245', u'screen_name': u'ThomasKlineMD', u'name': u'Thomas Kline MD, PhD'}], 'time_of_day': datetime.datetime(2017, 8, 11, 14, 49, 30), 'user_start_date': datetime.datetime(2013, 9, 21, 14, 54, 21), 'followers': 402, 'name': u'kkempken', 'favorites': 1, 'text': u"@ThomasKlineMD Have Trigeminal Neuralgia 24/7/365 i.e. suicide disease. Took long time to get right pain meds. Now being taken away. Survive? Don't know.", 'tot_user_posts': 615, 'friends': 649, 'retweets': 1}
{'user_mentions': [{u'id': 883087132851671042, u'indices': [0, 12], u'id_str': u'883087132851671042', u'screen_name': u'Skylukin011', u'name': u'Skylukin01'}, {u'id': 829052626700496896, u'indices': [13, 25], u'id_str': u'829052626700496896', u'screen_name': u'baylirlewis', u'name': u'Bayli Nugget'}, {u'id': 889637863008215040, u'indices': [26, 36], u'id_str': u'889637863008215040', u'screen_name': u'Rocker872', u'name': u'ChesterLivesOn'}], 'time_of_day': datetime.datetime(2017, 8, 11, 14, 15, 16), 'user_start_date': datetime.datetime(2017, 3, 22, 1, 11, 51), 'followers': 96, 'name': u'kate_d_1023', 'favorites': 2, 'text': u'@Skylukin011 @baylirlewis @Rocker872 ... but in the idea of embracing forms of pain to replace a final solution like suicide. It can be a release. &amp; I hate the term self harm.', 'tot_user_posts': 296, 'friends': 430, 'retweets': 0}
{'user_mentions': [], 'time_of_day': datetime.datetime(2017, 8, 11, 13, 22, 49), 'user_start_date': datetime.datetime(2008, 11, 6, 19, 50, 43), 'followers': 2753, 'name': u'cmoraff', 'favorites': 72, 'text': u"'People are left with 3 choices: unrelenting pain with no help, turn to street drugs, or they can commit suicide' https://t.co/8XDnDvZKqn", 'tot_user_posts': 38122, 'friends': 2496, 'retweets': 80}
{'user_mentions': [], 'time_of_day': datetime.datetime(2017, 8, 11, 10, 35, 6), 'user_start_date': datetime.datetime(2012, 3, 7, 13, 10, 6), 'followers': 316, 'name': u'paullyon_', 'favorites': 0, 'text': u"I like suicide, but I don't like suffering or pain", 'tot_user_posts': 32989, 'friends': 234, 'retweets': 0}
{'user_mentions': [], 'time_of_day': datetime.datetime(2017, 8, 11, 3, 38, 3), 'user_start_date': datetime.datetime(2010, 5, 27, 22, 8, 3), 'followers': 21960, 'name': u'bigSLEEDS', 'favorites': 0, 'text': u"i lie and say that i'm okay, but i'm steady plotting on my suicide... but they won't ever know my pain.", 'tot_user_posts': 44952, 'friends': 1646, 'retweets': 0}
{'user_mentions': [], 'time_of_day': datetime.datetime(2017, 8, 11, 2, 19, 57), 'user_start_date': datetime.datetime(2017, 8, 11, 2, 9, 50), 'followers': 0, 'name': u'congratstt', 'favorites': 0, 'text': u'Suicide is not a thing im thinking now but I want to push the pain away', 'tot_user_posts': 24, 'friends': 7, 'retweets': 0}
{'user_mentions': [], 'time_of_day': datetime.datetime(2017, 8, 11, 2, 2), 'user_start_date': datetime.datetime(2016, 11, 28, 14, 26, 55), 'followers': 56, 'name': u'padreemeritus', 'favorites': 0, 'text': u'"I flirt with suicide, sometimes, kill the pain..."', 'tot_user_posts': 1025, 'friends': 107, 'retweets': 0}
{'user_mentions': [{u'id': 128211271, u'indices': [0, 13], u'id_str': u'128211271', u'screen_name': u'atriushealth', u'name': u'Atrius Health'}, {u'id': 157799302, u'indices': [56, 72], u'id_str': u'157799302', u'screen_name': u'CambridgePolice', u'name': u'Cambridge Police\U0001f46e\U0001f3fd'}], 'time_of_day': datetime.datetime(2017, 8, 10, 19, 54, 37), 'user_start_date': datetime.datetime(2017, 1, 28, 18, 19, 45), 'followers': 2734, 'name': u'GloriaLaw5', 'favorites': 1, 'text': u'@atriushealth #Truth I work 11yrs w/ #bully surround me @CambridgePolice Payroll &amp; Personnel I suffer severe harm pain so real I attempt to commit suicide', 'tot_user_posts': 91898, 'friends': 5001, 'retweets': 0}
{'user_mentions': [], 'time_of_day': datetime.datetime(2017, 8, 10, 19, 28, 33), 'user_start_date': datetime.datetime(2012, 7, 1, 23, 18, 38), 'followers': 346, 'name': u'93Daydreamer', 'favorites': 0, 'text': u"I think about suicide often, think maybe that's the best option. Maybe it can be the only way to get control and end the pain #CSE #CSA", 'tot_user_posts': 937, 'friends': 134, 'retweets': 0}
{'user_mentions': [], 'time_of_day': datetime.datetime(2017, 8, 10, 16, 27, 36), 'user_start_date': datetime.datetime(2016, 9, 19, 6, 55, 6), 'followers': 101, 'name': u'w00tturnips', 'favorites': 1, 'text': u"cw: suicide\n\ni would kill my self without pain meds. my pain is so undertreated i think about it anyway. i can't imagine nothing at all https://t.co/Fesxf4yz0M", 'tot_user_posts': 2519, 'friends': 846, 'retweets': 0}
{'user_mentions': [], 'time_of_day': datetime.datetime(2017, 8, 10, 8, 57, 50), 'user_start_date': datetime.datetime(2012, 11, 28, 4, 40, 35), 'followers': 727, 'name': u'cool_andd', 'favorites': 0, 'text': u'MY BROTHER IS MAKING JOKES ABOUT ME AS I AM IN PAIN AND READY TO COMMIT SUICIDE', 'tot_user_posts': 29019, 'friends': 419, 'retweets': 0}
{'user_mentions': [], 'time_of_day': datetime.datetime(2017, 8, 10, 4, 38, 47), 'user_start_date': datetime.datetime(2016, 9, 17, 18, 10, 32), 'followers': 76, 'name': u'samuelcoolbeans', 'favorites': 2, 'text': u'anyways\nim gona w atch my suicide attempt bc i love pain', 'tot_user_posts': 52756, 'friends': 150, 'retweets': 0}
{'user_mentions': [], 'time_of_day': datetime.datetime(2017, 8, 10, 3, 46, 59), 'user_start_date': datetime.datetime(2014, 8, 25, 6, 34, 57), 'followers': 255, 'name': u'JoelThaKid', 'favorites': 0, 'text': u"He drank and drank to keep the pain away. The drinking didn't help. He figured suicide would help better and he killed himself.", 'tot_user_posts': 23743, 'friends': 168, 'retweets': 0}
{'user_mentions': [{u'id': 44783853, u'indices': [0, 7], u'id_str': u'44783853', u'screen_name': u'HHSGov', u'name': u'HHS.gov'}], 'time_of_day': datetime.datetime(2017, 8, 10, 3, 6, 7), 'user_start_date': datetime.datetime(2017, 7, 26, 3, 45, 59), 'followers': 0, 'name': u'DanielKesner', 'favorites': 0, 'text': u'@HHSGov Chronic pain sufferers will have to take opioids the rest of their life.what does it matter if they are addicted?beats Suicide.', 'tot_user_posts': 38, 'friends': 4, 'retweets': 0}
{'user_mentions': [], 'time_of_day': datetime.datetime(2017, 8, 10, 1, 54, 1), 'user_start_date': datetime.datetime(2014, 3, 19, 16, 45, 11), 'followers': 76, 'name': u'VernMetcalfJr', 'favorites': 0, 'text': u'Agree, tired of being associated w/junkies bc I live in chr pain. Suicide is a solution when you hurt to the point of not being able 2 move. https://t.co/iHfwhJ3LFD', 'tot_user_posts': 543, 'friends': 331, 'retweets': 0}
{'user_mentions': [{u'id': 799939648265056256, u'indices': [0, 15], u'id_str': u'799939648265056256', u'screen_name': u'__InRealLife__', u'name': u'InReaLife'}, {u'id': 817837292501008384, u'indices': [16, 26], u'id_str': u'817837292501008384', u'screen_name': u'jenndimps', u'name': u'Jenna Dimpsey'}, {u'id': 750441576162177024, u'indices': [27, 35], u'id_str': u'750441576162177024', u'screen_name': u'SxoocyD', u'name': u'Bryan_Easton'}], 'time_of_day': datetime.datetime(2017, 8, 10, 0, 52, 47), 'user_start_date': datetime.datetime(2017, 6, 26, 17, 31, 28), 'followers': 61, 'name': u'GiraffeSpiked', 'favorites': 0, 'text': u'@__InRealLife__ @jenndimps @SxoocyD And then we think about the terminally ill...\n\nAnd how the option of suicide might be the only way to end the pain.', 'tot_user_posts': 2468, 'friends': 261, 'retweets': 0}
{'user_mentions': [{u'id': 2781655571, u'indices': [0, 12], u'id_str': u'2781655571', u'screen_name': u'trinasmom49', u'name': u'trinasmom'}, {u'id': 2802279673, u'indices': [13, 26], u'id_str': u'2802279673', u'screen_name': u'doodlebugmom', u'name': u'Mary K. Klontz-Deane'}, {u'id': 464056843, u'indices': [27, 41], u'id_str': u'464056843', u'screen_name': u'StefanKertesz', u'name': u'Stefan Kertesz'}], 'time_of_day': datetime.datetime(2017, 8, 10, 0, 42, 45), 'user_start_date': datetime.datetime(2013, 12, 1, 6, 26, 9), 'followers': 340, 'name': u'mermaidmazie', 'favorites': 1, 'text': u'@trinasmom49 @doodlebugmom @StefanKertesz No1 should have to choose between life in agonizing pain or suicide just because a dr will not prescribe an opioid. Terminal illness is diff', 'tot_user_posts': 752, 'friends': 2817, 'retweets': 0}
{'user_mentions': [], 'time_of_day': datetime.datetime(2017, 8, 9, 23, 39, 50), 'user_start_date': datetime.datetime(2012, 6, 22, 11, 31, 10), 'followers': 385, 'name': u'ROCKITSPEED', 'favorites': 1, 'text': u"So much, so much pain. Sometimes it's too much. Did u c the news on Fam in NY that committed suicide 4 no insurance??\u2639\ufe0f\u2639\ufe0f https://t.co/iBYEbDPp8z", 'tot_user_posts': 50103, 'friends': 247, 'retweets': 1}
{'user_mentions': [{u'id': 40896332, u'indices': [0, 7], u'id_str': u'40896332', u'screen_name': u'LPLive', u'name': u'Linkin Park Live'}, {u'id': 36880083, u'indices': [8, 18], u'id_str': u'36880083', u'screen_name': u'ChesterBe', u'name': u'Chester Bennington'}], 'time_of_day': datetime.datetime(2017, 8, 9, 23, 10, 32), 'user_start_date': datetime.datetime(2017, 8, 2, 20, 0, 43), 'followers': 18, 'name': u'TJayL007', 'favorites': 9, 'text': u'@LPLive @ChesterBe Nobody who commits suicide is a coward! Fucking hate the stigma attached! Imagine the pain they were in &amp; have a heart \u2764\ufe0f\U0001f62d', 'tot_user_posts': 84, 'friends': 139, 'retweets': 0}
{'user_mentions': [{u'id': 2887988203, u'indices': [14, 28], u'id_str': u'2887988203', u'screen_name': u'youngblackcon', u'name': u'Patty Politics'}], 'time_of_day': datetime.datetime(2017, 8, 9, 21, 42, 5), 'user_start_date': datetime.datetime(2017, 3, 12, 3, 51, 22), 'followers': 39, 'name': u'NanoPanda_64', 'favorites': 0, 'text': u'@Medic_Archer @youngblackcon Do you not wind up passing pain onto those who cared about you? What if they then feel the suffering is unbearable? Suicide again?', 'tot_user_posts': 1744, 'friends': 87, 'retweets': 0}
{'user_mentions': [], 'time_of_day': datetime.datetime(2017, 8, 9, 21, 40, 23), 'user_start_date': datetime.datetime(2009, 9, 5, 7, 13, 15), 'followers': 8959, 'name': u'hboulware', 'favorites': 10, 'text': u'Having survived a suicide attempt I can assure you it\u2019s selfish and no amount of emotional pain justifies it. https://t.co/i8oCM76SOZ', 'tot_user_posts': 398360, 'friends': 985, 'retweets': 3}
{'user_mentions': [], 'time_of_day': datetime.datetime(2017, 8, 9, 21, 32), 'user_start_date': datetime.datetime(2009, 7, 27, 20, 12, 40), 'followers': 185, 'name': u'radgurll', 'favorites': 0, 'text': u'Why does it have to depression or thoughts of suicide before someone deserves to be heard? Pain is pain, no matter how intense.', 'tot_user_posts': 410, 'friends': 135, 'retweets': 0}
{'user_mentions': [], 'time_of_day': datetime.datetime(2017, 8, 9, 21, 21, 30), 'user_start_date': datetime.datetime(2012, 2, 18, 4, 50, 24), 'followers': 86, 'name': u'Top5_Don', 'favorites': 0, 'text': u'The Pain Hits never Ends. My Heart Goes out to every One Affected Suicide Domestic Violence.. my Heart Goes out to You.. #Pray4Me https://t.co/J5ZKTAUeka', 'tot_user_posts': 1303, 'friends': 101, 'retweets': 0}
{'user_mentions': [], 'time_of_day': datetime.datetime(2017, 8, 9, 18, 42, 47), 'user_start_date': datetime.datetime(2016, 7, 27, 6, 49, 44), 'followers': 135, 'name': u'KathyCellucci', 'favorites': 3, 'text': u'oh i got it now. let high pain sufferers commit suicide.while keeping the chronically altered addict pos. people alive. govt go suck a bag.', 'tot_user_posts': 3524, 'friends': 269, 'retweets': 0}
